Solution for Week 2: Raster Data Processing
…
Calculate total area per canton (Vector): 0.63 sec elapsed

tic("Compute forest coverage percentage (Vector)")
forest_coverage_vector <- left_join(canton_forest_area, canton_total_area, by = "name") %>%
  mutate(ForestPercentage = (ForestArea / TotalArea) * 100)
coverage_vector_time <- toc()

Compute forest coverage percentage (Vector): 0.54 sec elapsed

# Print results
as_tibble(st_drop_geometry(forest_coverage_vector))

# A tibble: 26 × 4
   name                    ForestArea   TotalArea ForestPercentage
   <chr>                        [m^2]       [m^2]              [1]
 1 Aargau                  489875833. 1403798009.             34.9
 2 Appenzell Ausserrhoden   76630211.  242836490.             31.6
 3 Appenzell Innerrhoden    47223028.  172476020.             27.4
 4 Basel-Landschaft        202579073.  517668761.             39.1
 5 Basel-Stadt               4652462.   36953764.             12.6
 6 Bern                   1667235367. 5958505730.             28.0
 7 Fribourg                417889316. 1672427799.             25.0
 8 Genève                   32741213.  282487194.             11.6
 9 Glarus                  166198271.  685314332.             24.3
10 Graubünden             1614784555. 7105296294.             22.7
# ℹ 16 more rows
…
